EESchema Schematic File Version 4
EELAYER 30 0
EELAYER END
$Descr A4 11693 8268
encoding utf-8
Sheet 1 1
Title ""
Date ""
Rev ""
Comp ""
Comment1 ""
Comment2 ""
Comment3 ""
Comment4 ""
$EndDescr
$Comp
L ME218_BaseLib:PIC32MX170F256B U1
U 1 1 6018FF4A
P 4200 3050
F 0 "U1" H 3925 4165 50  0000 C CNN
F 1 "PIC32MX170F256B" H 3925 4074 50  0000 C CNN
F 2 "" H 4200 3050 50  0001 C CNN
F 3 "" H 4200 3050 50  0001 C CNN
	1    4200 3050
	1    0    0    -1  
$EndComp
$Comp
L ME218_BaseLib:Cap C1
U 1 1 60191373
P 2800 2350
F 0 "C1" H 2915 2396 50  0000 L CNN
F 1 "0.1uF" H 2915 2305 50  0000 L CNN
F 2 "" H 2838 2200 50  0001 C CNN
F 3 "" H 2800 2350 50  0001 C CNN
	1    2800 2350
	1    0    0    -1  
$EndComp
$Comp
L power:+3.3V #PWR?
U 1 1 60191B53
P 2800 2100
F 0 "#PWR?" H 2800 1950 50  0001 C CNN
F 1 "+3.3V" H 2815 2273 50  0000 C CNN
F 2 "" H 2800 2100 50  0001 C CNN
F 3 "" H 2800 2100 50  0001 C CNN
	1    2800 2100
	1    0    0    -1  
$EndComp
$Comp
L power:GNDREF #PWR?
U 1 1 601921C7
P 2800 2600
F 0 "#PWR?" H 2800 2350 50  0001 C CNN
F 1 "GNDREF" H 2805 2427 50  0000 C CNN
F 2 "" H 2800 2600 50  0001 C CNN
F 3 "" H 2800 2600 50  0001 C CNN
	1    2800 2600
	1    0    0    -1  
$EndComp
Wire Wire Line
	2800 2100 2800 2200
Wire Wire Line
	3150 2200 2800 2200
Connection ~ 2800 2200
Wire Wire Line
	3150 2500 2800 2500
Wire Wire Line
	2800 2600 2800 2500
Connection ~ 2800 2500
$Comp
L ME218_BaseLib:Cap C2
U 1 1 601931F9
P 2800 3800
F 0 "C2" H 2915 3846 50  0000 L CNN
F 1 "0.1uF" H 2915 3755 50  0000 L CNN
F 2 "" H 2838 3650 50  0001 C CNN
F 3 "" H 2800 3800 50  0001 C CNN
	1    2800 3800
	1    0    0    -1  
$EndComp
$Comp
L power:+3.3V #PWR?
U 1 1 601931FF
P 2800 3550
F 0 "#PWR?" H 2800 3400 50  0001 C CNN
F 1 "+3.3V" H 2815 3723 50  0000 C CNN
F 2 "" H 2800 3550 50  0001 C CNN
F 3 "" H 2800 3550 50  0001 C CNN
	1    2800 3550
	1    0    0    -1  
$EndComp
$Comp
L power:GNDREF #PWR?
U 1 1 60193205
P 2800 4050
F 0 "#PWR?" H 2800 3800 50  0001 C CNN
F 1 "GNDREF" H 2805 3877 50  0000 C CNN
F 2 "" H 2800 4050 50  0001 C CNN
F 3 "" H 2800 4050 50  0001 C CNN
	1    2800 4050
	1    0    0    -1  
$EndComp
Wire Wire Line
	2800 3550 2800 3650
Wire Wire Line
	3150 3650 2800 3650
Connection ~ 2800 3650
Wire Wire Line
	3150 3950 2800 3950
Wire Wire Line
	2800 4050 2800 3950
Connection ~ 2800 3950
$Comp
L ME218_BaseLib:Cap C3
U 1 1 60193492
P 3850 4700
F 0 "C3" V 3598 4700 50  0000 C CNN
F 1 "10uF" V 3689 4700 50  0000 C CNN
F 2 "" H 3888 4550 50  0001 C CNN
F 3 "" H 3850 4700 50  0001 C CNN
	1    3850 4700
	0    1    1    0   
$EndComp
Wire Wire Line
	3700 4350 3700 4700
Wire Wire Line
	4000 4350 4000 4700
Wire Wire Line
	3700 4700 3700 4800
Connection ~ 3700 4700
$Comp
L power:GNDREF #PWR?
U 1 1 601941E2
P 3700 4800
F 0 "#PWR?" H 3700 4550 50  0001 C CNN
F 1 "GNDREF" H 3705 4627 50  0000 C CNN
F 2 "" H 3700 4800 50  0001 C CNN
F 3 "" H 3700 4800 50  0001 C CNN
	1    3700 4800
	1    0    0    -1  
$EndComp
$Comp
L ME218_BaseLib:Res1 R1
U 1 1 60194656
P 5000 2050
F 0 "R1" H 5068 2096 50  0000 L CNN
F 1 "10k" H 5068 2005 50  0000 L CNN
F 2 "" V 5040 2040 50  0001 C CNN
F 3 "" H 5000 2050 50  0001 C CNN
	1    5000 2050
	1    0    0    -1  
$EndComp
$Comp
L power:+3.3V #PWR?
U 1 1 601958B0
P 5000 1800
F 0 "#PWR?" H 5000 1650 50  0001 C CNN
F 1 "+3.3V" H 5015 1973 50  0000 C CNN
F 2 "" H 5000 1800 50  0001 C CNN
F 3 "" H 5000 1800 50  0001 C CNN
	1    5000 1800
	1    0    0    -1  
$EndComp
Wire Wire Line
	5000 1800 5000 1900
Wire Wire Line
	4700 2200 5000 2200
$Comp
L ME218_BaseLib:L293NE U2
U 1 1 6019650D
P 6650 4450
F 0 "U2" H 6650 5631 50  0000 C CNN
F 1 "L293NE" H 6650 5540 50  0000 C CNN
F 2 "Package_DIP:DIP-16_W7.62mm" H 6900 3700 50  0001 L CNN
F 3 "" H 6350 5150 50  0001 C CNN
	1    6650 4450
	1    0    0    -1  
$EndComp
$Comp
L ME218_BaseLib:RPot1 RV1
U 1 1 60198ADA
P 1800 3000
F 0 "RV1" H 1732 3046 50  0000 R CNN
F 1 "5k" H 1732 2955 50  0000 R CNN
F 2 "" H 1800 3000 50  0001 C CNN
F 3 "" H 1800 3000 50  0001 C CNN
	1    1800 3000
	1    0    0    -1  
$EndComp
$Comp
L power:+3.3V #PWR?
U 1 1 601A0853
P 1800 2750
F 0 "#PWR?" H 1800 2600 50  0001 C CNN
F 1 "+3.3V" H 1815 2923 50  0000 C CNN
F 2 "" H 1800 2750 50  0001 C CNN
F 3 "" H 1800 2750 50  0001 C CNN
	1    1800 2750
	1    0    0    -1  
$EndComp
Wire Wire Line
	1800 2750 1800 2850
$Comp
L power:GNDREF #PWR?
U 1 1 601A0F54
P 1800 3250
F 0 "#PWR?" H 1800 3000 50  0001 C CNN
F 1 "GNDREF" H 1805 3077 50  0000 C CNN
F 2 "" H 1800 3250 50  0001 C CNN
F 3 "" H 1800 3250 50  0001 C CNN
	1    1800 3250
	1    0    0    -1  
$EndComp
Wire Wire Line
	1800 3250 1800 3150
Wire Wire Line
	6550 5500 6650 5500
Wire Wire Line
	6650 5500 6650 5600
$Comp
L power:GNDREF #PWR?
U 1 1 601A21C2
P 6650 5600
F 0 "#PWR?" H 6650 5350 50  0001 C CNN
F 1 "GNDREF" H 6655 5427 50  0000 C CNN
F 2 "" H 6650 5600 50  0001 C CNN
F 3 "" H 6650 5600 50  0001 C CNN
	1    6650 5600
	1    0    0    -1  
$EndComp
Connection ~ 6650 5500
Wire Wire Line
	6650 5500 6750 5500
$Comp
L power:+5V #PWR?
U 1 1 601A282F
P 6950 3350
F 0 "#PWR?" H 6950 3200 50  0001 C CNN
F 1 "+5V" H 6965 3523 50  0000 C CNN
F 2 "" H 6950 3350 50  0001 C CNN
F 3 "" H 6950 3350 50  0001 C CNN
	1    6950 3350
	1    0    0    -1  
$EndComp
Wire Wire Line
	6950 3450 6950 3350
Wire Wire Line
	6550 5250 6550 5350
Wire Wire Line
	6750 5250 6750 5350
Wire Wire Line
	6450 5350 6550 5350
Connection ~ 6550 5350
Wire Wire Line
	6550 5350 6550 5500
Wire Wire Line
	6850 5250 6850 5350
Wire Wire Line
	6850 5350 6750 5350
Connection ~ 6750 5350
Wire Wire Line
	6750 5350 6750 5500
$Comp
L ME218_BaseLib:Diode D1
U 1 1 601A8681
P 8400 3300
F 0 "D1" H 8400 3516 50  0000 C CNN
F 1 "1N4935" H 8400 3425 50  0000 C CNN
F 2 "" H 8400 3300 50  0001 C CNN
F 3 "" H 8400 3300 50  0001 C CNN
	1    8400 3300
	1    0    0    -1  
$EndComp
$Comp
L ME218_BaseLib:Diode D3
U 1 1 601AFF7F
P 8400 4550
F 0 "D3" H 8400 4450 50  0000 C CNN
F 1 "1N4935" H 8400 4350 50  0000 C CNN
F 2 "" H 8400 4550 50  0001 C CNN
F 3 "" H 8400 4550 50  0001 C CNN
	1    8400 4550
	1    0    0    -1  
$EndComp
$Comp
L ME218_BaseLib:Diode D2
U 1 1 601B0A60
P 8900 3300
F 0 "D2" H 8900 3516 50  0000 C CNN
F 1 "1N4935" H 8900 3425 50  0000 C CNN
F 2 "" H 8900 3300 50  0001 C CNN
F 3 "" H 8900 3300 50  0001 C CNN
	1    8900 3300
	1    0    0    -1  
$EndComp
$Comp
L ME218_BaseLib:Diode D4
U 1 1 601B1109
P 8900 4550
F 0 "D4" H 8900 4450 50  0000 C CNN
F 1 "1N4935" H 8900 4350 50  0000 C CNN
F 2 "" H 8900 4550 50  0001 C CNN
F 3 "" H 8900 4550 50  0001 C CNN
	1    8900 4550
	1    0    0    -1  
$EndComp
Wire Wire Line
	8550 3300 8650 3300
Connection ~ 8650 3300
Wire Wire Line
	8650 3300 8750 3300
Wire Wire Line
	8550 4550 8650 4550
Connection ~ 8650 4550
Wire Wire Line
	8650 4550 8750 4550
$Comp
L power:+5V #PWR?
U 1 1 601B76A5
P 8150 3300
F 0 "#PWR?" H 8150 3150 50  0001 C CNN
F 1 "+5V" V 8165 3428 50  0000 L CNN
F 2 "" H 8150 3300 50  0001 C CNN
F 3 "" H 8150 3300 50  0001 C CNN
	1    8150 3300
	0    -1   -1   0   
$EndComp
$Comp
L power:+5V #PWR?
U 1 1 601B8069
P 8150 4550
F 0 "#PWR?" H 8150 4400 50  0001 C CNN
F 1 "+5V" V 8165 4678 50  0000 L CNN
F 2 "" H 8150 4550 50  0001 C CNN
F 3 "" H 8150 4550 50  0001 C CNN
	1    8150 4550
	0    -1   -1   0   
$EndComp
Wire Wire Line
	9050 3300 9150 3300
$Comp
L power:GNDREF #PWR?
U 1 1 601B904E
P 9150 3300
F 0 "#PWR?" H 9150 3050 50  0001 C CNN
F 1 "GNDREF" H 9155 3127 50  0000 C CNN
F 2 "" H 9150 3300 50  0001 C CNN
F 3 "" H 9150 3300 50  0001 C CNN
	1    9150 3300
	0    -1   -1   0   
$EndComp
Wire Wire Line
	9050 4550 9150 4550
$Comp
L power:GNDREF #PWR?
U 1 1 601BA817
P 9150 4550
F 0 "#PWR?" H 9150 4300 50  0001 C CNN
F 1 "GNDREF" H 9155 4377 50  0000 C CNN
F 2 "" H 9150 4550 50  0001 C CNN
F 3 "" H 9150 4550 50  0001 C CNN
	1    9150 4550
	0    -1   -1   0   
$EndComp
Wire Wire Line
	8250 3300 8150 3300
Wire Wire Line
	8250 4550 8150 4550
$Comp
L power:GNDREF #PWR?
U 1 1 601BD916
P 5500 3850
F 0 "#PWR?" H 5500 3600 50  0001 C CNN
F 1 "GNDREF" V 5505 3722 50  0000 R CNN
F 2 "" H 5500 3850 50  0001 C CNN
F 3 "" H 5500 3850 50  0001 C CNN
	1    5500 3850
	0    1    1    0   
$EndComp
$Comp
L power:+3.3V #PWR?
U 1 1 601BF3B5
P 5500 4250
F 0 "#PWR?" H 5500 4100 50  0001 C CNN
F 1 "+3.3V" V 5515 4378 50  0000 L CNN
F 2 "" H 5500 4250 50  0001 C CNN
F 3 "" H 5500 4250 50  0001 C CNN
	1    5500 4250
	0    -1   -1   0   
$EndComp
$Comp
L ME218_BaseLib:Cap C4
U 1 1 601E4EDE
P 5800 4800
F 0 "C4" H 5600 4850 50  0000 L CNN
F 1 "0.1uF" H 5500 4750 50  0000 L CNN
F 2 "" H 5838 4650 50  0001 C CNN
F 3 "" H 5800 4800 50  0001 C CNN
	1    5800 4800
	1    0    0    -1  
$EndComp
Wire Wire Line
	7500 3450 7500 4650
Wire Wire Line
	7500 4950 7500 5350
Wire Wire Line
	7500 5350 6850 5350
Connection ~ 6850 5350
Wire Wire Line
	5800 3450 5800 4650
Wire Wire Line
	5800 4950 5800 5350
Wire Wire Line
	6450 5250 6450 5350
Wire Wire Line
	5800 5350 6450 5350
Connection ~ 6450 5350
Wire Wire Line
	5500 3850 6150 3850
Wire Wire Line
	5500 4250 6150 4250
$Comp
L ME218_BaseLib:Motor_Step_6Wire M1
U 1 1 60207B1B
P 8950 4050
F 0 "M1" H 9138 4174 50  0000 L CNN
F 1 "12SG-N20VA-150-EN" H 9138 4083 50  0000 L CNN
F 2 "" H 8960 4040 50  0001 C CNN
F 3 "" H 8960 4040 50  0001 C CNN
	1    8950 4050
	1    0    0    -1  
$EndComp
Wire Wire Line
	7150 3850 7150 3750
Wire Wire Line
	7150 4050 7150 4150
Wire Wire Line
	7150 3750 8650 3750
Wire Wire Line
	7150 4150 8650 4150
$Comp
L power:GNDREF #PWR?
U 1 1 6021C07B
P 8950 3650
F 0 "#PWR?" H 8950 3400 50  0001 C CNN
F 1 "GNDREF" H 8955 3477 50  0000 C CNN
F 2 "" H 8950 3650 50  0001 C CNN
F 3 "" H 8950 3650 50  0001 C CNN
	1    8950 3650
	-1   0    0    1   
$EndComp
Wire Wire Line
	8650 3300 8650 3750
Connection ~ 8650 3750
Wire Wire Line
	8650 3750 8850 3750
Wire Wire Line
	8650 4150 8650 4550
Connection ~ 8650 4150
$Comp
L power:+3.3V #PWR?
U 1 1 6022911E
P 8550 4050
F 0 "#PWR?" H 8550 3900 50  0001 C CNN
F 1 "+3.3V" V 8565 4178 50  0000 L CNN
F 2 "" H 8550 4050 50  0001 C CNN
F 3 "" H 8550 4050 50  0001 C CNN
	1    8550 4050
	0    -1   -1   0   
$EndComp
Wire Wire Line
	8950 3750 8950 3650
Wire Wire Line
	8650 4050 8550 4050
Wire Wire Line
	1950 3000 3150 3000
Wire Wire Line
	3150 2900 2350 2900
Wire Wire Line
	2350 2900 2350 1300
Wire Wire Line
	2350 1300 9650 1300
Wire Wire Line
	9650 1300 9650 3750
Wire Wire Line
	9650 3750 9050 3750
Wire Wire Line
	4700 4050 6150 4050
$Comp
L power:+5V #PWR?
U 1 1 601A6FCF
P 6350 3350
F 0 "#PWR?" H 6350 3200 50  0001 C CNN
F 1 "+5V" H 6365 3523 50  0000 C CNN
F 2 "" H 6350 3350 50  0001 C CNN
F 3 "" H 6350 3350 50  0001 C CNN
	1    6350 3350
	1    0    0    -1  
$EndComp
Wire Wire Line
	6350 3450 6350 3350
Wire Wire Line
	5800 3450 6350 3450
Connection ~ 6350 3450
Wire Wire Line
	6350 3450 6550 3450
Wire Wire Line
	6750 3450 6950 3450
Connection ~ 6950 3450
Wire Wire Line
	6950 3450 7500 3450
$Comp
L ME218_BaseLib:Cap_Pol C5
U 1 1 601AB0D7
P 7500 4800
F 0 "C5" H 7615 4846 50  0000 L CNN
F 1 "220uF" H 7615 4755 50  0000 L CNN
F 2 "" H 7500 4800 50  0001 C CNN
F 3 "" H 7500 4800 50  0001 C CNN
	1    7500 4800
	1    0    0    -1  
$EndComp
$EndSCHEMATC
